[
	{
		"category": "",
		"data": {
			"quote": {
				"text": "People in Brazil are really happy and full of love.",
				"from": "TripAdvisor"
			},
			"image": "deals-grid-1.jpg",
			"price": {
				"excerpt": "Hotel in Brazil from",
				"value": 198
			},
			"places": [

			],
			"title": "World Cup 2014"
		},
		"lines": 2,
		"type": "default",
		"id": 0,
		"columns": 1
	},
	{
		"category": "",
		"data": {
			"quote": {
				"text": "People in Brazil are really happy and full of love.",
				"from": "TripAdvisor"
			},
			"image": "deals-grid-2.jpg",
			"price": {
				"excerpt": "Hotel in Brazil from",
				"value": 198
			},
			"places": [

			],
			"title": "World Cup 2014"
		},
		"lines": 1,
		"type": "default",
		"id": 1,
		"columns": 1
	},
	{
		"category": "",
		"data": {
			"quote": {
				"text": "People in Brazil are really happy and full of love.",
				"from": "TripAdvisor"
			},
			"image": "deals-grid-3.jpg",
			"price": {
				"excerpt": "Package from",
				"value": 198
			},
			"places": [
				{
					"name": "Ballico"
				},
				{
					"name": "Camino"
				},
				{
					"name": "Galesville"
				},
				{
					"name": "Smock"
				}
			],
			"title": "World Cup 2014"
		},
		"lines": 2,
		"type": "default",
		"id": 2,
		"columns": 3
	},
	{
		"category": "romance",
		"data": {
			"quote": {
				"text": "People in Brazil are really happy and full of love.",
				"from": "TripAdvisor"
			},
			"image": "deals-grid-1.jpg",
			"price": {
				"excerpt": "Hotel in Brazil from",
				"value": 198
			},
			"places": [

			],
			"title": "World Cup 2014"
		},
		"lines": 1,
		"type": "default",
		"id": 3,
		"columns": 1
	},
	{
		"category": "",
		"data": {
			"quote": {
				"text": "People in Brazil are really happy and full of love.",
				"from": "TripAdvisor"
			},
			"image": "deals-grid-1.jpg",
			"price": {
				"excerpt": "Hotel in Brazil from",
				"value": 198
			},
			"places": [

			],
			"title": "World Cup 2014"
		},
		"lines": 2,
		"type": "default",
		"id": 0,
		"columns": 1
	},
	{
		"category": "",
		"data": {
			"quote": {
				"text": "People in Brazil are really happy and full of love.",
				"from": "TripAdvisor"
			},
			"image": "deals-grid-2.jpg",
			"price": {
				"excerpt": "Hotel in Brazil from",
				"value": 198
			},
			"places": [

			],
			"title": "World Cup 2014"
		},
		"lines": 1,
		"type": "default",
		"id": 1,
		"columns": 1
	},
	{
		"category": "",
		"data": {
			"quote": {
				"text": "People in Brazil are really happy and full of love.",
				"from": "TripAdvisor"
			},
			"image": "deals-grid-3.jpg",
			"price": {
				"excerpt": "Package from",
				"value": 198
			},
			"places": [
				{
					"name": "Ballico"
				},
				{
					"name": "Camino"
				},
				{
					"name": "Galesville"
				},
				{
					"name": "Smock"
				}
			],
			"title": "World Cup 2014"
		},
		"lines": 2,
		"type": "default",
		"id": 2,
		"columns": 3
	},
	{
		"category": "romance",
		"data": {
			"quote": {
				"text": "People in Brazil are really happy and full of love.",
				"from": "TripAdvisor"
			},
			"image": "deals-grid-1.jpg",
			"price": {
				"excerpt": "Hotel in Brazil from",
				"value": 198
			},
			"places": [

			],
			"title": "World Cup 2014"
		},
		"lines": 1,
		"type": "default",
		"id": 3,
		"columns": 1
	},
	{
		"category": "",
		"data": {
			"quote": {
				"text": "People in Brazil are really happy and full of love.",
				"from": "TripAdvisor"
			},
			"image": "deals-grid-1.jpg",
			"price": {
				"excerpt": "Hotel in Brazil from",
				"value": 198
			},
			"places": [

			],
			"title": "World Cup 2014"
		},
		"lines": 2,
		"type": "default",
		"id": 0,
		"columns": 1
	},
	{
		"category": "",
		"data": {
			"quote": {
				"text": "People in Brazil are really happy and full of love.",
				"from": "TripAdvisor"
			},
			"image": "deals-grid-2.jpg",
			"price": {
				"excerpt": "Hotel in Brazil from",
				"value": 198
			},
			"places": [

			],
			"title": "World Cup 2014"
		},
		"lines": 1,
		"type": "default",
		"id": 1,
		"columns": 1
	},
	{
		"category": "",
		"data": {
			"quote": {
				"text": "People in Brazil are really happy and full of love.",
				"from": "TripAdvisor"
			},
			"image": "deals-grid-3.jpg",
			"price": {
				"excerpt": "Package from",
				"value": 198
			},
			"places": [
				{
					"name": "Ballico"
				},
				{
					"name": "Camino"
				},
				{
					"name": "Galesville"
				},
				{
					"name": "Smock"
				}
			],
			"title": "World Cup 2014"
		},
		"lines": 2,
		"type": "default",
		"id": 2,
		"columns": 3
	},
	{
		"category": "romance",
		"data": {
			"quote": {
				"text": "People in Brazil are really happy and full of love.",
				"from": "TripAdvisor"
			},
			"image": "deals-grid-1.jpg",
			"price": {
				"excerpt": "Hotel in Brazil from",
				"value": 198
			},
			"places": [

			],
			"title": "World Cup 2014"
		},
		"lines": 1,
		"type": "default",
		"id": 3,
		"columns": 1
	},
	{
		"category": "",
		"data": {
			"quote": {
				"text": "People in Brazil are really happy and full of love.",
				"from": "TripAdvisor"
			},
			"image": "deals-grid-1.jpg",
			"price": {
				"excerpt": "Hotel in Brazil from",
				"value": 198
			},
			"places": [

			],
			"title": "World Cup 2014"
		},
		"lines": 2,
		"type": "default",
		"id": 0,
		"columns": 1
	},
	{
		"category": "",
		"data": {
			"quote": {
				"text": "People in Brazil are really happy and full of love.",
				"from": "TripAdvisor"
			},
			"image": "deals-grid-2.jpg",
			"price": {
				"excerpt": "Hotel in Brazil from",
				"value": 198
			},
			"places": [

			],
			"title": "World Cup 2014"
		},
		"lines": 1,
		"type": "default",
		"id": 1,
		"columns": 1
	},
	{
		"category": "",
		"data": {
			"quote": {
				"text": "People in Brazil are really happy and full of love.",
				"from": "TripAdvisor"
			},
			"image": "deals-grid-3.jpg",
			"price": {
				"excerpt": "Package from",
				"value": 198
			},
			"places": [
				{
					"name": "Ballico"
				},
				{
					"name": "Camino"
				},
				{
					"name": "Galesville"
				},
				{
					"name": "Smock"
				}
			],
			"title": "World Cup 2014"
		},
		"lines": 2,
		"type": "default",
		"id": 2,
		"columns": 3
	},
	{
		"category": "romance",
		"data": {
			"quote": {
				"text": "People in Brazil are really happy and full of love.",
				"from": "TripAdvisor"
			},
			"image": "deals-grid-1.jpg",
			"price": {
				"excerpt": "Hotel in Brazil from",
				"value": 198
			},
			"places": [

			],
			"title": "World Cup 2014"
		},
		"lines": 1,
		"type": "default",
		"id": 3,
		"columns": 1
	},
	{
		"category": "",
		"data": {
			"quote": {
				"text": "People in Brazil are really happy and full of love.",
				"from": "TripAdvisor"
			},
			"image": "deals-grid-1.jpg",
			"price": {
				"excerpt": "Hotel in Brazil from",
				"value": 198
			},
			"places": [

			],
			"title": "World Cup 2014"
		},
		"lines": 2,
		"type": "default",
		"id": 0,
		"columns": 1
	},
	{
		"category": "",
		"data": {
			"quote": {
				"text": "People in Brazil are really happy and full of love.",
				"from": "TripAdvisor"
			},
			"image": "deals-grid-2.jpg",
			"price": {
				"excerpt": "Hotel in Brazil from",
				"value": 198
			},
			"places": [

			],
			"title": "World Cup 2014"
		},
		"lines": 1,
		"type": "default",
		"id": 1,
		"columns": 1
	},
	{
		"category": "",
		"data": {
			"quote": {
				"text": "People in Brazil are really happy and full of love.",
				"from": "TripAdvisor"
			},
			"image": "deals-grid-3.jpg",
			"price": {
				"excerpt": "Package from",
				"value": 198
			},
			"places": [
				{
					"name": "Ballico"
				},
				{
					"name": "Camino"
				},
				{
					"name": "Galesville"
				},
				{
					"name": "Smock"
				}
			],
			"title": "World Cup 2014"
		},
		"lines": 2,
		"type": "default",
		"id": 2,
		"columns": 3
	},
	{
		"category": "romance",
		"data": {
			"quote": {
				"text": "People in Brazil are really happy and full of love.",
				"from": "TripAdvisor"
			},
			"image": "deals-grid-1.jpg",
			"price": {
				"excerpt": "Hotel in Brazil from",
				"value": 198
			},
			"places": [

			],
			"title": "World Cup 2014"
		},
		"lines": 1,
		"type": "default",
		"id": 3,
		"columns": 1
	}
]
