[
  {
    "url": "http://media.expedia.com/hotels/1000000/20000/18200/18115/18115_205_s.jpg",
    "roomId": 33426
  },
  {
    "url": "http://media.expedia.com/hotels/3000000/2480000/2475700/2475690/18115_233_s.jpg",
    "roomId": 347226
  },
  {
    "url": "http://media.expedia.com/hotels/1000000/20000/18200/18115/18115_203_s.jpg",
    "roomId": 519602
  }
]