{
	"total": 415,
	"history": [
		{
			"earned": "2014-07-19T06:30:00.000+01:00",
			"expireDate": "2014-12-08T06:30:00.000+01:00",
			"from": "Twitter share",
			"total": 35,
			"type": "flight"
		},
		{
			"earned": "2014-01-30T06:30:00.000+01:00",
			"expireDate": "2014-12-27T06:30:00.000+01:00",
			"from": "Facebook share",
			"total": 130,
			"type": "car"
		},
		{
			"earned": "2014-07-08T06:30:00.000+01:00",
			"expireDate": "2014-12-13T06:30:00.000+01:00",
			"from": "Twitter share",
			"total": 45,
			"type": "hotel"
		},
		{
			"earned": "2014-07-08T06:30:00.000+01:00",
			"expireDate": "2014-12-16T06:30:00.000+01:00",
			"from": "Facebook share",
			"total": 30,
			"type": "flight"
		},
		{
			"earned": "2014-01-30T06:30:00.000+01:00",
			"expireDate": "2014-12-27T06:30:00.000+01:00",
			"from": "Facebook share",
			"total": 130,
			"type": "car"
		},
		{
			"earned": "2014-07-08T06:30:00.000+01:00",
			"expireDate": "2014-12-13T06:30:00.000+01:00",
			"from": "Twitter share",
			"total": 45,
			"type": "hotel"
		}
	],

	"coupons": [
		{
			"generated": "2014-07-19T06:30:00.000+01:00",
			"code": "AKJX867D",
			"currency": "CHF",
			"total": 35,
			"status": {
				"name": "Ready to use",
				"ready": true
			}
		},
		{
			"generated": "2014-08-19T06:30:00.000+01:00",
			"code": "AKJX867D",
			"currency": "CHF",
			"total": 35,
			"status": {
				"name": "Already used",
				"ready": false
			}
		},
		{
			"generated": "2014-07-25T06:30:00.000+01:00",
			"code": "AKJX867D",
			"currency": "CHF",
			"total": 35,
			"status": {
				"name": "Already used",
				"ready": false
			}
		}
	]
}